<?xml version="1.0" encoding="UTF-8" standalone="no"?>
<!DOCTYPE svg PUBLIC "-//W3C//DTD SVG 1.1//EN" "http://www.w3.org/Graphics/SVG/1.1/DTD/svg11.dtd">
<svg xmlns="http://www.w3.org/2000/svg" xmlns:xlink="http://www.w3.org/1999/xlink" version="1.1" width="194.04pt" height="99pt" viewBox="0 0 194.04 99">
<g enable-background="new">
<clipPath id="cp0">
<path transform="matrix(1,0,0,-1,-292.05,523.89)" d="M 0 0 L 792 0 L 792 612 L 0 612 Z "/>
</clipPath>
<g clip-path="url(#cp0)">
<path transform="matrix(.8,0,0,-.8,-130.04038,14.365829)" d="M 16.12796 0 L 0 16.12796 L -16.12796 0 L 0 -16.12796 Z " fill="#fff1e6"/>
<path transform="matrix(.8,0,0,-.8,-130.04038,14.365829)" stroke-width=".3985" stroke-linecap="butt" stroke-miterlimit="10" stroke-linejoin="miter" fill="none" stroke="#a35e1a" d="M 16.12796 0 L 0 16.12796 L -16.12796 0 L 0 -16.12796 Z "/>
<text xml:space="preserve" transform="matrix(1.2 0 -0 1.2 -351.57197 668.6735)" font-size="7.9701" font-family="CMR8"><tspan y="-542.533" x="181.495">R</tspan></text>
<path transform="matrix(.8,0,0,-.8,-130.04038,14.365829)" d="M -116.688 -14.44601 L -58.903944 -14.44601 L -58.903944 14.446021 L -116.688 14.446021 Z " fill="#f2f2ff"/>
<path transform="matrix(.8,0,0,-.8,-130.04038,14.365829)" stroke-width=".3985" stroke-linecap="butt" stroke-miterlimit="10" stroke-linejoin="miter" fill="none" stroke="#323f99" d="M -116.688 -14.44601 L -58.903944 -14.44601 L -58.903944 14.446021 L -116.688 14.446021 Z "/>
<text xml:space="preserve" transform="matrix(.8 0 -0 .8 -278.974 451.66026)" font-size="11.9552" font-family="CMR12"><tspan y="-542.533" x="93.985">A</tspan></text>
<path transform="matrix(.8,0,0,-.8,-130.04038,14.365829)" stroke-width=".3985" stroke-linecap="butt" stroke-miterlimit="10" stroke-linejoin="miter" fill="none" stroke="#000000" d="M -58.7047 0 L -16.55214 0 "/>
<path transform="matrix(.8,0,0,-.8,-130.04038,14.365829)" d="M -32.5073 5.8154 L -42.74953 5.8154 L -42.74953 -5.81538 L -32.5073 -5.81538 Z M -42.74953 -5.81538 " fill="#ffffff"/>
<text xml:space="preserve" transform="matrix(.6 0 -0 .6 -249.70499 342.91447)" font-size="11.9552" font-family="CMR12"><tspan y="-543.729" x="146.345">1</tspan></text>
<path transform="matrix(.8,0,0,-.8,-130.04038,14.365829)" d="M -28.89203 61.64383 L 28.89203 61.64383 L 28.89203 90.53586 L -28.89203 90.53586 Z " fill="#f2f2ff"/>
<path transform="matrix(.8,0,0,-.8,-130.04038,14.365829)" stroke-width=".3985" stroke-linecap="butt" stroke-miterlimit="10" stroke-linejoin="miter" fill="none" stroke="#323f99" d="M -28.89203 61.64383 L 28.89203 61.64383 L 28.89203 90.53586 L -28.89203 90.53586 Z "/>
<text xml:space="preserve" transform="matrix(.8 0 -0 .8 -278.97398 451.66026)" font-size="11.9552" font-family="CMR12"><tspan y="-618.622" x="182.023">B</tspan></text>
<path transform="matrix(.8,0,0,-.8,-130.04038,14.365829)" stroke-width=".3985" stroke-linecap="butt" stroke-miterlimit="10" stroke-linejoin="miter" fill="none" stroke="#000000" d="M 0 61.44458 L 0 16.55226 "/>
<path transform="matrix(.8,0,0,-.8,-130.04038,14.365829)" d="M 6.217 44.98817 L -6.217 44.98817 L -6.217 33.00867 L 6.217 33.00867 Z M -6.217 33.00867 " fill="#ffffff"/>
<text xml:space="preserve" transform="matrix(.6 0 -0 .6 -242.39859 335.14985)" font-size="11.9552" font-family="CMR12"><tspan y="-582.552" x="182.877">N</tspan></text>
<path transform="matrix(.8,0,0,-.8,-130.04038,14.365829)" d="M 58.90395 -14.44601 L 116.68801 -14.44601 L 116.68801 14.446021 L 58.90395 14.446021 Z " fill="#f2f2ff"/>
<path transform="matrix(.8,0,0,-.8,-130.04038,14.365829)" stroke-width=".3985" stroke-linecap="butt" stroke-miterlimit="10" stroke-linejoin="miter" fill="none" stroke="#323f99" d="M 58.90395 -14.44601 L 116.68801 -14.44601 L 116.68801 14.446021 L 58.90395 14.446021 Z "/>
<text xml:space="preserve" transform="matrix(.8 0 -0 .8 -278.97398 451.66026)" font-size="11.9552" font-family="CMR12"><tspan y="-542.533" x="269.735">C</tspan></text>
<path transform="matrix(.8,0,0,-.8,-130.04038,14.365829)" stroke-width=".3985" stroke-linecap="butt" stroke-miterlimit="10" stroke-linejoin="miter" fill="none" stroke="#000000" d="M 58.7047 0 L 16.55214 0 "/>
<path transform="matrix(.8,0,0,-.8,-130.04038,14.365829)" d="M 42.74954 5.8154 L 32.50731 5.8154 L 32.50731 -5.81538 L 42.74954 -5.81538 Z M 32.50731 -5.81538 " fill="#ffffff"/>
<text xml:space="preserve" transform="matrix(.6 0 -0 .6 -234.65399 342.91447)" font-size="11.9552" font-family="CMR12"><tspan y="-543.729" x="221.6">1</tspan></text>
<path transform="matrix(.8,0,0,-.8,-130.04038,14.365829)" d="M -28.89203 -90.53586 L 28.89203 -90.53586 L 28.89203 -61.64383 L -28.89203 -61.64383 Z " fill="#f2f2ff"/>
<path transform="matrix(.8,0,0,-.8,-130.04038,14.365829)" stroke-width=".3985" stroke-linecap="butt" stroke-miterlimit="10" stroke-linejoin="miter" fill="none" stroke="#323f99" d="M -28.89203 -90.53586 L 28.89203 -90.53586 L 28.89203 -61.64383 L -28.89203 -61.64383 Z "/>
<text xml:space="preserve" transform="matrix(.8 0 -0 .8 -278.974 451.66026)" font-size="11.9552" font-family="CMR12"><tspan y="-466.444" x="181.697">D</tspan></text>
<path transform="matrix(.8,0,0,-.8,-130.04038,14.365829)" stroke-width=".3985" stroke-linecap="butt" stroke-miterlimit="10" stroke-linejoin="miter" fill="none" stroke="#000000" d="M 0 -61.44458 L 0 -16.55226 "/>
<path transform="matrix(.8,0,0,-.8,-130.04038,14.365829)" d="M 6.217 -33.00865 L -6.217 -33.00865 L -6.217 -44.98816 L 6.217 -44.98816 Z M -6.217 -44.98816 " fill="#ffffff"/>
<text xml:space="preserve" transform="matrix(.6 0 -0 .6 -242.39859 350.74906)" font-size="11.9552" font-family="CMR12"><tspan y="-504.556" x="182.877">N</tspan></text>
<text xml:space="preserve" transform="matrix(.8 0 -0 .8 -278.97398 451.66023)" font-size="11.9552" font-family="CMBX12" font-weight="bold"><tspan y="-379.745" x="177.575 182.81137 189.54215">(1)</tspan></text>
<path transform="matrix(.8,0,0,-.8,-130.04038,14.365829)" d="M 299.5962 0 L 283.46824 16.12796 L 267.34028 0 L 283.46824 -16.12796 Z " fill="#fff1e6"/>
<path transform="matrix(.8,0,0,-.8,-130.04038,14.365829)" stroke-width=".3985" stroke-linecap="butt" stroke-miterlimit="10" stroke-linejoin="miter" fill="none" stroke="#a35e1a" d="M 299.5962 0 L 283.46824 16.12796 L 267.34028 0 L 283.46824 -16.12796 Z "/>
<text xml:space="preserve" transform="matrix(1.2 0 -0 1.2 -464.958 668.6735)" font-size="7.9701" font-family="CMR8"><tspan y="-542.533" x="464.96">R</tspan></text>
<path transform="matrix(.8,0,0,-.8,-130.04038,14.365829)" d="M 166.7802 -14.44601 L 224.56426 -14.44601 L 224.56426 14.446021 L 166.7802 14.446021 Z " fill="#f2f2ff"/>
<path transform="matrix(.8,0,0,-.8,-130.04038,14.365829)" stroke-width=".3985" stroke-linecap="butt" stroke-miterlimit="10" stroke-linejoin="miter" fill="none" stroke="#323f99" d="M 166.7802 -14.44601 L 224.56426 -14.44601 L 224.56426 14.446021 L 166.7802 14.446021 Z "/>
<text xml:space="preserve" transform="matrix(.8 0 -0 .8 -278.97398 451.66026)" font-size="11.9552" font-family="CMR12"><tspan y="-542.533" x="377.449">A</tspan></text>
<path transform="matrix(.8,0,0,-.8,-130.04038,14.365829)" stroke-width="2.29141" stroke-linecap="butt" stroke-miterlimit="10" stroke-linejoin="miter" fill="none" stroke="#000000" d="M 224.7635 0 L 266.91609 0 "/>
<path transform="matrix(.8,0,0,-.8,-130.04038,14.365829)" stroke-width="1.49442" stroke-linecap="butt" stroke-miterlimit="10" stroke-linejoin="miter" fill="none" stroke="#ffffff" d="M 224.7635 0 L 266.91609 0 "/>
<path transform="matrix(.8,0,0,-.8,-130.04038,14.365829)" d="M 250.9609 5.8154 L 240.71869 5.8154 L 240.71869 -5.81538 L 250.9609 -5.81538 Z M 240.71869 -5.81538 " fill="#ffffff"/>
<text xml:space="preserve" transform="matrix(.6 0 -0 .6 -193.01218 342.91447)" font-size="11.9552" font-family="CMR12"><tspan y="-543.729" x="429.809">1</tspan></text>
<path transform="matrix(.8,0,0,-.8,-130.04038,14.365829)" d="M 342.37217 -14.44601 L 400.15623 -14.44601 L 400.15623 14.446021 L 342.37217 14.446021 Z " fill="#f2f2ff"/>
<path transform="matrix(.8,0,0,-.8,-130.04038,14.365829)" stroke-width=".3985" stroke-linecap="butt" stroke-miterlimit="10" stroke-linejoin="miter" fill="none" stroke="#323f99" d="M 342.37217 -14.44601 L 400.15623 -14.44601 L 400.15623 14.446021 L 342.37217 14.446021 Z "/>
<text xml:space="preserve" transform="matrix(.8 0 -0 .8 -278.97398 451.66026)" font-size="11.9552" font-family="CMR12"><tspan y="-542.533" x="553.282">B</tspan></text>
<path transform="matrix(.8,0,0,-.8,-130.04038,14.365829)" stroke-width="2.29141" stroke-linecap="butt" stroke-miterlimit="10" stroke-linejoin="miter" fill="none" stroke="#000000" d="M 342.1729 0 L 300.02037 0 "/>
<path transform="matrix(.8,0,0,-.8,-130.04038,14.365829)" stroke-width="1.49442" stroke-linecap="butt" stroke-miterlimit="10" stroke-linejoin="miter" fill="none" stroke="#ffffff" d="M 342.1729 0 L 300.02037 0 "/>
<path transform="matrix(.8,0,0,-.8,-130.04038,14.365829)" d="M 326.21778 5.8154 L 315.97554 5.8154 L 315.97554 -5.81538 L 326.21778 -5.81538 Z M 315.97554 -5.81538 " fill="#ffffff"/>
<text xml:space="preserve" transform="matrix(.6 0 -0 .6 -177.96097 342.91447)" font-size="11.9552" font-family="CMR12"><tspan y="-543.729" x="505.065">1</tspan></text>
<path transform="matrix(.8,0,0,-.8,-130.04038,14.365829)" d="M 254.57619 -102.24199 L 312.36027 -102.24199 L 312.36027 -73.34996 L 254.57619 -73.34996 Z " fill="#f2f2ff"/>
<path transform="matrix(.8,0,0,-.8,-130.04038,14.365829)" stroke-width=".3985" stroke-linecap="butt" stroke-miterlimit="10" stroke-linejoin="miter" fill="none" stroke="#323f99" d="M 254.57619 -102.24199 L 312.36027 -102.24199 L 312.36027 -73.34996 L 254.57619 -73.34996 Z "/>
<text xml:space="preserve" transform="matrix(.8 0 -0 .8 -278.97398 451.66023)" font-size="11.9552" font-family="CMR12"><tspan y="-454.738" x="465.405">C</tspan></text>
<path transform="matrix(.8,0,0,-.8,-130.04038,14.365829)" stroke-width=".3985" stroke-linecap="butt" stroke-miterlimit="10" stroke-linejoin="miter" fill="none" stroke="#000000" d="M 283.46824 -73.15071 L 283.46824 -16.55214 "/>
<path transform="matrix(.8,0,0,-.8,-130.04038,14.365829)" d="M 290.5142 -38.06299 L 276.42225 -38.06299 L 276.42225 -51.63985 L 290.5142 -51.63985 Z M 276.42225 -51.63985 " fill="#ffffff"/>
<text xml:space="preserve" transform="matrix(.68 0 -0 .68 -223.06574 391.86485)" font-size="11.9552" font-family="CMR12"><tspan y="-498.295" x="465.902">N</tspan></text>
<text xml:space="preserve" transform="matrix(.8 0 -0 .8 -278.97398 451.66026)" font-size="11.9552" font-family="CMBX12" font-weight="bold"><tspan y="-368.039" x="461.039 466.2754 473.00617">(2)</tspan></text>
<path transform="matrix(.8,0,0,-.8,-130.04038,14.365829)" d="M 583.0644 0 L 566.9364 16.12796 L 550.8085 0 L 566.9364 -16.12796 Z " fill="#fff1e6"/>
<path transform="matrix(.8,0,0,-.8,-130.04038,14.365829)" stroke-width=".3985" stroke-linecap="butt" stroke-miterlimit="10" stroke-linejoin="miter" fill="none" stroke="#a35e1a" d="M 583.0644 0 L 566.9364 16.12796 L 550.8085 0 L 566.9364 -16.12796 Z "/>
<text xml:space="preserve" transform="matrix(1.2 0 -0 1.2 -578.34359 668.6735)" font-size="7.9701" font-family="CMR8"><tspan y="-542.533" x="748.424">R</tspan></text>
<path transform="matrix(.8,0,0,-.8,-130.04038,14.365829)" d="M 450.2484 -14.44601 L 508.03248 -14.44601 L 508.03248 14.446021 L 450.2484 14.446021 Z " fill="#f2f2ff"/>
<path transform="matrix(.8,0,0,-.8,-130.04038,14.365829)" stroke-width=".3985" stroke-linecap="butt" stroke-miterlimit="10" stroke-linejoin="miter" fill="none" stroke="#323f99" d="M 450.2484 -14.44601 L 508.03248 -14.44601 L 508.03248 14.446021 L 450.2484 14.446021 Z "/>
<text xml:space="preserve" transform="matrix(.8 0 -0 .8 -278.97398 451.66026)" font-size="11.9552" font-family="CMR12"><tspan y="-542.533" x="660.914">A</tspan></text>
<path transform="matrix(.8,0,0,-.8,-130.04038,14.365829)" stroke-width=".3985" stroke-linecap="butt" stroke-miterlimit="10" stroke-linejoin="miter" fill="none" stroke="#000000" d="M 508.23176 0 L 550.3843 0 "/>
<path transform="matrix(.8,0,0,-.8,-130.04038,14.365829)" d="M 543.81686 7.40945 L 514.79916 7.40945 L 514.79916 -7.40945 L 543.81686 -7.40945 Z M 514.79916 -7.40945 " fill="#ffffff"/>
<text xml:space="preserve" transform="matrix(.6 0 -0 .6 -138.19678 342.78504)" font-size="11.9552" font-family="CMR12"><tspan y="-544.376" x="703.886 708.4409 714.29898 721.4482 730.2233">(1,N)</tspan></text>
<path transform="matrix(.8,0,0,-.8,-130.04038,14.365829)" d="M 625.8404 -14.44601 L 683.62448 -14.44601 L 683.62448 14.446021 L 625.8404 14.446021 Z " fill="#f2f2ff"/>
<path transform="matrix(.8,0,0,-.8,-130.04038,14.365829)" stroke-width=".3985" stroke-linecap="butt" stroke-miterlimit="10" stroke-linejoin="miter" fill="none" stroke="#323f99" d="M 625.8404 -14.44601 L 683.62448 -14.44601 L 683.62448 14.446021 L 625.8404 14.446021 Z "/>
<text xml:space="preserve" transform="matrix(.8 0 -0 .8 -278.97398 451.66026)" font-size="11.9552" font-family="CMR12"><tspan y="-542.533" x="836.746">B</tspan></text>
<path transform="matrix(.8,0,0,-.8,-130.04038,14.365829)" stroke-width=".3985" stroke-linecap="butt" stroke-miterlimit="10" stroke-linejoin="miter" fill="none" stroke="#000000" d="M 625.6411 0 L 583.4886 0 "/>
<path transform="matrix(.8,0,0,-.8,-130.04038,14.365829)" d="M 619.0737 7.40945 L 590.056 7.40945 L 590.056 -7.40945 L 619.0737 -7.40945 Z M 590.056 -7.40945 " fill="#ffffff"/>
<text xml:space="preserve" transform="matrix(.6 0 -0 .6 -123.14563 342.78504)" font-size="11.9552" font-family="CMR12"><tspan y="-544.376" x="779.142 783.69699 789.555 796.7042 805.4794">(1,N)</tspan></text>
<text xml:space="preserve" transform="matrix(.8 0 -0 .8 -278.974 451.66023)" font-size="11.9552" font-family="CMBX12" font-weight="bold"><tspan y="-379.745" x="744.504 749.7404 756.4712">(3)</tspan></text>
<text xml:space="preserve" transform="matrix(1 0 -0 1 -292.05 523.89)" font-size="11.9552" font-family="CMR12"><tspan y="0" x="394.07">1</tspan></text>
</g>
</g>
</svg>
